{
  "devices": [
    {
      "installationId": "1ab5ce71-25cc-4250-bfd3-4c5397a14b69",
      "lastUsed": 1719820081691
    },
    {
      "installationId": "0cd7d024-26f2-44e6-ba9d-33b770c242c5",
      "lastUsed": 1719819063142
    },
    {
      "installationId": "1687cb66-b911-4840-bcf4-3d1022ab9331",
      "lastUsed": 1719818588930
    },
    {
      "installationId": "c87ef63b-881a-4f52-b70f-54c5cac1b219",
      "lastUsed": 1719818228414
    },
    {
      "installationId": "ee1a0c0b-989b-4a0f-ad2e-ac39d0f97545",
      "lastUsed": 1719572746444
    },
    {
      "installationId": "e2814edf-bce6-4823-aa22-9eb45eeeb594",
      "lastUsed": 1719566251878
    },
    {
      "installationId": "d5bd4832-ca5c-45c4-bbde-bae08c5e844e",
      "lastUsed": 1719566144393
    },
    {
      "installationId": "a16010e3-5809-45c1-a81f-11ad54a7c580",
      "lastUsed": 1719565145237
    },
    {
      "installationId": "a8b02b23-2099-4721-9a31-346f2a8f7f8e",
      "lastUsed": 1719549845193
    },
    {
      "installationId": "659e8261-26ad-4a07-abf8-07ff4c33e398",
      "lastUsed": 1719549645699
    }
  ]
}
